tool	Seahorn 	Seahorn 	Seahorn 	Seahorn 	Seahorn 	Seahorn 	Seahorn 	Seahorn 
../../sv-benchmarks/c/	status	time(s)	memory(MB)	time(s) for witness	status	time(s)	memory(MB)	time(s) for witness
floats-cdfpl/newton_1_4_false-unreach-call.i	false(reach)	0.17	32	-	witness confirmed	0.17	32	1.4
floats-cdfpl/newton_1_5_false-unreach-call.i	false(reach)	0.19	32	-	witness confirmed	0.19	32	1.4
floats-cdfpl/newton_1_6_false-unreach-call.i	false(reach)	0.15	32	-	witness confirmed	0.15	32	1.7
floats-cdfpl/newton_1_7_false-unreach-call.i	false(reach)	0.16	32	-	witness confirmed	0.16	32	1.7
floats-cdfpl/newton_1_8_false-unreach-call.i	false(reach)	0.29	32	-	witness confirmed	0.29	32	1.4
floats-cdfpl/newton_2_6_false-unreach-call.i	false(reach)	0.16	32	-	witness confirmed	0.16	32	1.4
floats-cdfpl/newton_2_7_false-unreach-call.i	false(reach)	0.14	32	-	witness confirmed	0.14	32	1.4
floats-cdfpl/newton_2_8_false-unreach-call.i	false(reach)	0.15	32	-	witness confirmed	0.15	32	1.7
floats-cdfpl/newton_3_6_false-unreach-call.i	false(reach)	0.16	32	-	witness confirmed	0.16	32	1.4
floats-cdfpl/newton_3_7_false-unreach-call.i	false(reach)	0.14	32	-	witness confirmed	0.14	32	1.4
floats-cdfpl/newton_3_8_false-unreach-call.i	false(reach)	0.28	32	-	witness confirmed	0.28	32	1.4
floats-cdfpl/sine_1_false-unreach-call.i	false(reach)	0.16	32	-	witness confirmed	0.16	32	1.4
floats-cdfpl/sine_2_false-unreach-call.i	false(reach)	0.15	32	-	witness confirmed	0.15	32	1.4
floats-cdfpl/sine_3_false-unreach-call.i	false(reach)	0.30	32	-	witness confirmed	0.30	32	1.4
floats-cdfpl/square_1_false-unreach-call.i	false(reach)	0.16	32	-	witness confirmed	0.16	32	1.4
floats-cdfpl/square_2_false-unreach-call.i	false(reach)	0.17	32	-	witness confirmed	0.17	32	1.4
floats-cdfpl/square_3_false-unreach-call.i	false(reach)	0.15	29	-	witness confirmed	0.15	29	1.4
float-benchs/float_int_inv_square_false-unreach-call.c	false(reach)	0.17	32	-	witness confirmed	0.17	32	1.5
float-benchs/inv_square_false-unreach-call.c	false(reach)	0.17	32	-	witness confirmed	0.17	32	1.5
float-benchs/nan_double_false-unreach-call.c	false(reach)	0.14	32	-	witness confirmed	0.14	32	1.4
float-benchs/nan_float_false-unreach-call.c	false(reach)	0.14	32	-	witness confirmed	0.14	32	1.4
float-benchs/sin_interpolated_index_false-unreach-call.c	false(reach)	0.34	32	-	witness confirmed	0.34	32	1.6
