tool	Seahorn 	Seahorn 	Seahorn 	Seahorn 	Seahorn 	Seahorn 	Seahorn 	Seahorn 
../../sv-benchmarks/c/	status	time(s)	memory(MB)	time(s) for witness	status	time(s)	memory(MB)	time(s) for witness
ntdrivers/cdaudio_false-unreach-call.i.cil.c	TIMEOUT	920	960	-	TIMEOUT	920	960	-
ntdrivers/diskperf_false-unreach-call.i.cil.c	false(reach)	0.88	34	-	witness confirmed	0.88	34	3.9
ntdrivers/floppy_false-unreach-call.i.cil.c	false(reach)	1.3	35	-	witness confirmed	1.3	35	4.1
ntdrivers/kbfiltr_false-unreach-call.i.cil.c	false(reach)	1.1	51	-	witness confirmed	1.1	51	4.6
ntdrivers/parport_false-unreach-call.i.cil.c	false(reach)	24	290	-	witness confirmed	24	290	4.7
ntdrivers/cdaudio_true-unreach-call.i.cil.c	true	2.5	97	-	true	2.5	97	-
ntdrivers/diskperf_true-unreach-call.i.cil.c	true	0.87	31	-	true	0.87	31	-
ntdrivers/floppy2_true-unreach-call.i.cil.c	true	1.1	43	-	true	1.1	43	-
ntdrivers/floppy_true-unreach-call.i.cil.c	true	1.4	32	-	true	1.4	32	-
ntdrivers/parport_true-unreach-call.i.cil.c	TIMEOUT	920	8400	-	TIMEOUT	920	8400	-
ssh/s3_clnt.blast.01_false-unreach-call.i.cil.c	false(reach)	5.6	71	-	witness confirmed	5.6	71	34
ssh/s3_clnt.blast.02_false-unreach-call.i.cil.c	false(reach)	3.9	68	-	witness confirmed	3.9	68	7.7
ssh/s3_clnt.blast.03_false-unreach-call.i.cil.c	false(reach)	3.6	68	-	witness confirmed	3.6	68	7.6
ssh/s3_clnt.blast.04_false-unreach-call.i.cil.c	false(reach)	3.1	68	-	witness confirmed	3.1	68	7.5
ssh/s3_srvr.blast.01_false-unreach-call.i.cil.c	false(reach)	1.8	54	-	witness confirmed	1.8	54	48
ssh/s3_srvr.blast.02_false-unreach-call.i.cil.c	false(reach)	1.3	54	-	witness confirmed	1.3	54	11
ssh/s3_srvr.blast.03_false-unreach-call.i.cil.c	false(reach)	1.8	54	-	witness confirmed	1.8	54	11
ssh/s3_srvr.blast.04_false-unreach-call.i.cil.c	false(reach)	1.4	54	-	witness confirmed	1.4	54	11
ssh/s3_srvr.blast.06_false-unreach-call.i.cil.c	false(reach)	3.0	75	-	witness confirmed	3.0	75	3.1
ssh/s3_srvr.blast.07_false-unreach-call.i.cil.c	false(reach)	4.0	73	-	witness confirmed	4.0	73	22
ssh/s3_srvr.blast.08_false-unreach-call.i.cil.c	false(reach)	21	150	-	witness confirmed	21	150	3.1
ssh/s3_srvr.blast.09_false-unreach-call.i.cil.c	false(reach)	6.3	74	-	witness confirmed	6.3	74	22
ssh/s3_srvr.blast.10_false-unreach-call.i.cil.c	false(reach)	19	150	-	witness confirmed	19	150	3.1
ssh/s3_srvr.blast.11_false-unreach-call.i.cil.c	false(reach)	2.5	69	-	witness confirmed	2.5	69	14
ssh/s3_srvr.blast.12_false-unreach-call.i.cil.c	false(reach)	3.2	74	-	witness confirmed	3.2	74	3.1
ssh/s3_srvr.blast.13_false-unreach-call.i.cil.c	false(reach)	5.4	74	-	witness confirmed	5.4	74	22
ssh/s3_srvr.blast.14_false-unreach-call.i.cil.c	false(reach)	3.9	75	-	witness confirmed	3.9	75	3.0
ssh/s3_srvr.blast.15_false-unreach-call.i.cil.c	false(reach)	22	150	-	witness confirmed	22	150	3.1
ssh/s3_srvr.blast.16_false-unreach-call.i.cil.c	false(reach)	3.7	76	-	witness confirmed	3.7	76	3.1
ssh/s3_clnt.blast.01_true-unreach-call.i.cil.c	true	9.3	52	-	true	9.3	52	-
ssh/s3_clnt.blast.02_true-unreach-call.i.cil.c	true	7.0	51	-	true	7.0	51	-
ssh/s3_clnt.blast.03_true-unreach-call.i.cil.c	true	11	53	-	true	11	53	-
ssh/s3_clnt.blast.04_true-unreach-call.i.cil.c	true	8.3	52	-	true	8.3	52	-
ssh/s3_srvr.blast.01_true-unreach-call.i.cil.c	true	59	74	-	true	59	74	-
ssh/s3_srvr.blast.02_true-unreach-call.i.cil.c	true	36	65	-	true	36	65	-
ssh/s3_srvr.blast.06_true-unreach-call.i.cil.c	true	75	76	-	true	75	76	-
ssh/s3_srvr.blast.07_true-unreach-call.i.cil.c	true	100	85	-	true	100	85	-
ssh/s3_srvr.blast.08_true-unreach-call.i.cil.c	true	93	68	-	true	93	68	-
ssh/s3_srvr.blast.09_true-unreach-call.i.cil.c	true	69	76	-	true	69	76	-
ssh/s3_srvr.blast.10_true-unreach-call.i.cil.c	true	34	65	-	true	34	65	-
ssh/s3_srvr.blast.11_true-unreach-call.i.cil.c	true	66	74	-	true	66	74	-
ssh/s3_srvr.blast.12_true-unreach-call.i.cil.c	true	66	73	-	true	66	73	-
ssh/s3_srvr.blast.13_true-unreach-call.i.cil.c	true	73	74	-	true	73	74	-
ssh/s3_srvr.blast.14_true-unreach-call.i.cil.c	true	68	75	-	true	68	75	-
ssh/s3_srvr.blast.15_true-unreach-call.i.cil.c	true	46	66	-	true	46	66	-
ssh/s3_srvr.blast.16_true-unreach-call.i.cil.c	true	58	69	-	true	58	69	-
