File,Result,time,memory,time.witness,witness.status,wtime,wmemory,wtime.witness
array-examples/data_structures_set_multi_proc_false-unreach-call_ground.i,TIMEOUT,920,7200,-,TIMEOUT,920,7200,-
array-examples/sorting_bubblesort_false-unreach-call2_ground.i,TIMEOUT,920,7600,-,TIMEOUT,920,7600,-
array-examples/sorting_bubblesort_false-unreach-call_ground.i,TIMEOUT,920,8000,-,TIMEOUT,920,8000,-
array-examples/sorting_selectionsort_false-unreach-call2_ground.i,TIMEOUT,920,4700,-,TIMEOUT,920,4700,-
array-examples/standard_allDiff2_false-unreach-call_ground.i,TIMEOUT,920,7100,-,TIMEOUT,920,7100,-
array-examples/standard_copy1_false-unreach-call_ground.i,TIMEOUT,920,9100,-,TIMEOUT,920,9100,-
array-examples/standard_copy2_false-unreach-call_ground.i,TIMEOUT,920,9000,-,TIMEOUT,920,9000,-
array-examples/standard_copy3_false-unreach-call_ground.i,TIMEOUT,920,9100,-,TIMEOUT,920,9100,-
array-examples/standard_copy4_false-unreach-call_ground.i,TIMEOUT,920,9100,-,TIMEOUT,920,9100,-
array-examples/standard_copy5_false-unreach-call_ground.i,TIMEOUT,920,9100,-,TIMEOUT,920,9100,-
array-examples/standard_copy6_false-unreach-call_ground.i,TIMEOUT,920,8800,-,TIMEOUT,920,8800,-
array-examples/standard_copy7_false-unreach-call_ground.i,TIMEOUT,920,9000,-,TIMEOUT,920,9000,-
array-examples/standard_copy8_false-unreach-call_ground.i,TIMEOUT,920,8900,-,TIMEOUT,920,8900,-
array-examples/standard_copy9_false-unreach-call_ground.i,TIMEOUT,920,8900,-,TIMEOUT,920,8900,-
array-examples/standard_copyInitSum2_false-unreach-call_ground.i,TIMEOUT,920,9000,-,TIMEOUT,920,9000,-
array-examples/standard_init1_false-unreach-call_ground.i,TIMEOUT,920,9000,-,TIMEOUT,920,9000,-
array-examples/standard_init2_false-unreach-call_ground.i,TIMEOUT,920,9100,-,TIMEOUT,920,9100,-
array-examples/standard_init3_false-unreach-call_ground.i,TIMEOUT,920,9000,-,TIMEOUT,920,9000,-
array-examples/standard_init4_false-unreach-call_ground.i,TIMEOUT,920,9100,-,TIMEOUT,920,9100,-
array-examples/standard_init5_false-unreach-call_ground.i,TIMEOUT,920,9100,-,TIMEOUT,920,9100,-
array-examples/standard_init6_false-unreach-call_ground.i,TIMEOUT,920,9000,-,TIMEOUT,920,9000,-
array-examples/standard_init7_false-unreach-call_ground.i,TIMEOUT,920,9000,-,TIMEOUT,920,9000,-
array-examples/standard_init8_false-unreach-call_ground.i,TIMEOUT,920,9100,-,TIMEOUT,920,9100,-
array-examples/standard_init9_false-unreach-call_ground.i,TIMEOUT,920,9000,-,TIMEOUT,920,9000,-
array-examples/standard_minInArray_false-unreach-call_ground.i,TIMEOUT,920,9000,-,TIMEOUT,920,9000,-
array-examples/standard_partition_false-unreach-call_ground.i,TIMEOUT,920,8800,-,TIMEOUT,920,8800,-
array-examples/standard_running_false-unreach-call.i,TIMEOUT,920,9500,-,TIMEOUT,920,9500,-
array-examples/data_structures_set_multi_proc_trivial_true-unreach-call_ground.i,true,0.16,27,-,true,0.16,27,-
array-examples/data_structures_set_multi_proc_true-unreach-call_ground.i,TIMEOUT,920,4600,-,TIMEOUT,920,4600,-
array-examples/sanfoundry_02_true-unreach-call_ground.i,TIMEOUT,920,8700,-,TIMEOUT,920,8700,-
array-examples/sanfoundry_10_true-unreach-call_ground.i,TIMEOUT,920,12000,-,TIMEOUT,920,12000,-
array-examples/sanfoundry_24_true-unreach-call.i,true,0.29,27,-,true,0.29,27,-
array-examples/sanfoundry_27_true-unreach-call_ground.i,TIMEOUT,920,9100,-,TIMEOUT,920,9100,-
array-examples/sanfoundry_43_true-unreach-call_ground.i,true,0.16,27,-,true,0.16,27,-
array-examples/sorting_bubblesort_true-unreach-call_ground.i,TIMEOUT,920,7800,-,TIMEOUT,920,7800,-
array-examples/sorting_selectionsort_true-unreach-call_ground.i,TIMEOUT,920,6300,-,TIMEOUT,920,6300,-
array-examples/standard_compareModified_true-unreach-call_ground.i,TIMEOUT,920,9700,-,TIMEOUT,920,9700,-
array-examples/standard_compare_true-unreach-call_ground.i,TIMEOUT,920,9100,-,TIMEOUT,920,9100,-
array-examples/standard_copy1_true-unreach-call_ground.i,TIMEOUT,920,8900,-,TIMEOUT,920,8900,-
array-examples/standard_copy2_true-unreach-call_ground.i,TIMEOUT,920,9100,-,TIMEOUT,920,9100,-
array-examples/standard_copy3_true-unreach-call_ground.i,TIMEOUT,920,9100,-,TIMEOUT,920,9100,-
array-examples/standard_copy4_true-unreach-call_ground.i,TIMEOUT,920,9100,-,TIMEOUT,920,9100,-
array-examples/standard_copy5_true-unreach-call_ground.i,TIMEOUT,920,9100,-,TIMEOUT,920,9100,-
array-examples/standard_copy6_true-unreach-call_ground.i,TIMEOUT,920,9100,-,TIMEOUT,920,9100,-
array-examples/standard_copy7_true-unreach-call_ground.i,TIMEOUT,920,9100,-,TIMEOUT,920,9100,-
array-examples/standard_copy8_true-unreach-call_ground.i,TIMEOUT,920,9000,-,TIMEOUT,920,9000,-
array-examples/standard_copy9_true-unreach-call_ground.i,TIMEOUT,920,9000,-,TIMEOUT,920,9000,-
array-examples/standard_copyInitSum2_true-unreach-call_ground.i,TIMEOUT,920,9100,-,TIMEOUT,920,9100,-
array-examples/standard_copyInitSum3_true-unreach-call_ground.i,TIMEOUT,920,9100,-,TIMEOUT,920,9100,-
array-examples/standard_copyInitSum_true-unreach-call_ground.i,TIMEOUT,920,9200,-,TIMEOUT,920,9200,-
array-examples/standard_copyInit_true-unreach-call_ground.i,TIMEOUT,920,9100,-,TIMEOUT,920,9100,-
array-examples/standard_find_true-unreach-call_ground.i,unknown,0.16,34,-,unknown,0.16,34,-
array-examples/standard_init1_true-unreach-call_ground.i,TIMEOUT,920,9100,-,TIMEOUT,920,9100,-
array-examples/standard_init2_true-unreach-call_ground.i,TIMEOUT,920,9000,-,TIMEOUT,920,9000,-
array-examples/standard_init3_true-unreach-call_ground.i,TIMEOUT,920,9200,-,TIMEOUT,920,9200,-
array-examples/standard_init4_true-unreach-call_ground.i,TIMEOUT,920,9200,-,TIMEOUT,920,9200,-
array-examples/standard_init5_true-unreach-call_ground.i,TIMEOUT,920,9000,-,TIMEOUT,920,9000,-
array-examples/standard_init6_true-unreach-call_ground.i,TIMEOUT,920,9000,-,TIMEOUT,920,9000,-
array-examples/standard_init7_true-unreach-call_ground.i,TIMEOUT,920,9100,-,TIMEOUT,920,9100,-
array-examples/standard_init8_true-unreach-call_ground.i,TIMEOUT,920,9000,-,TIMEOUT,920,9000,-
array-examples/standard_init9_true-unreach-call_ground.i,TIMEOUT,920,8900,-,TIMEOUT,920,8900,-
array-examples/standard_maxInArray_true-unreach-call_ground.i,TIMEOUT,920,9000,-,TIMEOUT,920,9000,-
array-examples/standard_minInArray_true-unreach-call_ground.i,TIMEOUT,920,9100,-,TIMEOUT,920,9100,-
array-examples/standard_palindrome_true-unreach-call_ground.i,TIMEOUT,920,9100,-,TIMEOUT,920,9100,-
array-examples/standard_partial_init_true-unreach-call_ground.i,TIMEOUT,920,7400,-,TIMEOUT,920,7400,-
array-examples/standard_partition_original_true-unreach-call_ground.i,TIMEOUT,920,8700,-,TIMEOUT,920,8700,-
array-examples/standard_partition_true-unreach-call_ground.i,TIMEOUT,920,9000,-,TIMEOUT,920,9000,-
array-examples/standard_password_true-unreach-call_ground.i,TIMEOUT,920,9100,-,TIMEOUT,920,9100,-
array-examples/standard_reverse_true-unreach-call_ground.i,TIMEOUT,920,9100,-,TIMEOUT,920,9100,-
array-examples/standard_running_true-unreach-call.i,TIMEOUT,920,9500,-,TIMEOUT,920,9500,-
array-examples/standard_sentinel_true-unreach-call.i,unknown,0.29,34,-,unknown,0.29,34,-
array-examples/standard_seq_init_true-unreach-call_ground.i,TIMEOUT,920,9100,-,TIMEOUT,920,9100,-
array-examples/standard_strcmp_true-unreach-call_ground.i,TIMEOUT,920,12000,-,TIMEOUT,920,12000,-
array-examples/standard_strcpy_original_true-unreach-call.i,unknown,0.27,35,-,unknown,0.27,35,-
array-examples/standard_strcpy_true-unreach-call_ground.i,unknown,0.26,35,-,unknown,0.26,35,-
array-examples/standard_two_index_01_true-unreach-call.i,TIMEOUT,920,9000,-,TIMEOUT,920,9000,-
array-examples/standard_two_index_02_true-unreach-call.i,TIMEOUT,920,8900,-,TIMEOUT,920,8900,-
array-examples/standard_two_index_03_true-unreach-call.i,TIMEOUT,920,9400,-,TIMEOUT,920,9400,-
array-examples/standard_two_index_04_true-unreach-call.i,TIMEOUT,920,9000,-,TIMEOUT,920,9000,-
array-examples/standard_two_index_05_true-unreach-call.i,TIMEOUT,920,9200,-,TIMEOUT,920,9200,-
array-examples/standard_two_index_06_true-unreach-call.i,TIMEOUT,920,4500,-,TIMEOUT,920,4500,-
array-examples/standard_two_index_07_true-unreach-call.i,TIMEOUT,920,9100,-,TIMEOUT,920,9100,-
array-examples/standard_two_index_08_true-unreach-call.i,TIMEOUT,920,9100,-,TIMEOUT,920,9100,-
array-examples/standard_two_index_09_true-unreach-call.i,TIMEOUT,920,9000,-,TIMEOUT,920,9000,-
array-examples/standard_vararg_true-unreach-call_ground.i,false(reach),0.15,34,-,false(reach),0.15,34,-
array-examples/standard_vector_difference_true-unreach-call_ground.i,TIMEOUT,920,8900,-,TIMEOUT,920,8900,-
