File,Result,time,memory,time.witness,witness.status,wtime,wmemory,wtime.witness
systemc/kundu1_false-unreach-call_false-termination.cil.c,false(reach),1.4,53,-,witness invalid (ASSERTION),1.4,53,1.5
systemc/kundu2_false-unreach-call_false-termination.cil.c,false(reach),2.2,50,-,witness invalid (ASSERTION),2.2,50,1.6
systemc/pc_sfifo_1_false-unreach-call_false-termination.cil.c,false(reach),0.33,37,-,witness confirmed,0.33,37,1.6
systemc/pc_sfifo_2_false-unreach-call_false-termination.cil.c,false(reach),0.35,38,-,witness invalid (ASSERTION),0.35,38,1.4
systemc/pipeline_false-unreach-call_false-termination.cil.c,false(reach),42,190,-,witness confirmed,42,190,59
systemc/token_ring.01_false-unreach-call_false-termination.cil.c,false(reach),0.54,37,-,witness invalid (ASSERTION),0.54,37,1.5
systemc/token_ring.02_false-unreach-call_false-termination.cil.c,false(reach),0.67,40,-,witness invalid (ASSERTION),0.67,40,1.6
systemc/token_ring.03_false-unreach-call_false-termination.cil.c,false(reach),1.1,44,-,witness invalid (ASSERTION),1.1,44,1.6
systemc/token_ring.04_false-unreach-call_false-termination.cil.c,false(reach),1.4,49,-,witness invalid (ASSERTION),1.4,49,1.6
systemc/token_ring.05_false-unreach-call_false-termination.cil.c,false(reach),2.1,53,-,witness invalid (ASSERTION),2.1,53,1.8
systemc/token_ring.06_false-unreach-call_false-termination.cil.c,false(reach),2.7,59,-,witness invalid (ASSERTION),2.7,59,1.8
systemc/token_ring.07_false-unreach-call_false-termination.cil.c,false(reach),5.9,71,-,witness invalid (ASSERTION),5.9,71,2.0
systemc/token_ring.08_false-unreach-call_false-termination.cil.c,false(reach),10,98,-,witness invalid (ASSERTION),10,98,2.0
systemc/token_ring.09_false-unreach-call_false-termination.cil.c,false(reach),67,240,-,witness invalid (ASSERTION),67,240,2.2
systemc/token_ring.10_false-unreach-call_false-termination.cil.c,false(reach),140,530,-,witness invalid (ASSERTION),140,530,2.2
systemc/token_ring.11_false-unreach-call_false-termination.cil.c,false(reach),12,88,-,witness invalid (ASSERTION),12,88,2.3
systemc/token_ring.12_false-unreach-call_false-termination.cil.c,false(reach),23,100,-,witness invalid (ASSERTION),23,100,2.4
systemc/token_ring.13_false-unreach-call_false-termination.cil.c,OUT OF MEMORY,440,15000,-,OUT OF MEMORY,440,15000,-
systemc/token_ring.14_false-unreach-call_false-termination.cil.c,false(reach),32,100,-,witness invalid (ASSERTION),32,100,2.5
systemc/token_ring.15_false-unreach-call_false-termination.cil.c,OUT OF MEMORY,450,15000,-,OUT OF MEMORY,450,15000,-
systemc/toy1_false-unreach-call_false-termination.cil.c,false(reach),5.7,77,-,witness invalid (ASSERTION),5.7,77,1.6
systemc/toy2_false-unreach-call_false-termination.cil.c,false(reach),5.5,78,-,witness invalid (ASSERTION),5.5,78,1.6
systemc/transmitter.01_false-unreach-call_false-termination.cil.c,false(reach),0.44,35,-,witness invalid (ASSERTION),0.44,35,1.5
systemc/transmitter.02_false-unreach-call_false-termination.cil.c,false(reach),0.60,39,-,witness invalid (ASSERTION),0.60,39,1.6
systemc/transmitter.03_false-unreach-call_false-termination.cil.c,false(reach),0.68,42,-,witness invalid (ASSERTION),0.68,42,1.6
systemc/transmitter.04_false-unreach-call_false-termination.cil.c,false(reach),1.0,47,-,witness invalid (ASSERTION),1.0,47,1.7
systemc/transmitter.05_false-unreach-call_false-termination.cil.c,false(reach),1.5,52,-,witness invalid (ASSERTION),1.5,52,1.8
systemc/transmitter.06_false-unreach-call_false-termination.cil.c,false(reach),2.4,57,-,witness invalid (ASSERTION),2.4,57,1.8
systemc/transmitter.07_false-unreach-call_false-termination.cil.c,false(reach),2.4,64,-,witness invalid (ASSERTION),2.4,64,2.2
systemc/transmitter.08_false-unreach-call_false-termination.cil.c,false(reach),3.8,71,-,witness invalid (ASSERTION),3.8,71,2.0
systemc/transmitter.09_false-unreach-call_false-termination.cil.c,false(reach),3.9,76,-,witness invalid (ASSERTION),3.9,76,2.1
systemc/transmitter.10_false-unreach-call_false-termination.cil.c,false(reach),6.5,83,-,witness invalid (ASSERTION),6.5,83,2.1
systemc/transmitter.11_false-unreach-call_false-termination.cil.c,false(reach),8.2,89,-,witness invalid (ASSERTION),8.2,89,2.7
systemc/transmitter.12_false-unreach-call_false-termination.cil.c,false(reach),9.3,100,-,witness invalid (ASSERTION),9.3,100,2.4
systemc/transmitter.13_false-unreach-call_false-termination.cil.c,false(reach),14,110,-,witness invalid (ASSERTION),14,110,2.5
systemc/transmitter.15_false-unreach-call_false-termination.cil.c,false(reach),2.8,78,-,witness invalid (ASSERTION),2.8,78,2.0
systemc/transmitter.16_false-unreach-call_false-termination.cil.c,false(reach),3.0,82,-,witness invalid (ASSERTION),3.0,82,2.1
systemc/bist_cell_true-unreach-call_false-termination.cil.c,true,0.27,28,-,true,0.27,28,-
systemc/kundu_true-unreach-call_false-termination.cil.c,true,45,160,-,true,45,160,-
systemc/mem_slave_tlm.1_true-unreach-call_false-termination.cil.c,true,140,350,-,true,140,350,-
systemc/mem_slave_tlm.2_true-unreach-call_false-termination.cil.c,true,400,420,-,true,400,420,-
systemc/mem_slave_tlm.3_true-unreach-call_false-termination.cil.c,TIMEOUT,920,670,-,TIMEOUT,920,670,-
systemc/mem_slave_tlm.4_true-unreach-call_false-termination.cil.c,TIMEOUT,920,460,-,TIMEOUT,920,460,-
systemc/mem_slave_tlm.5_true-unreach-call_false-termination.cil.c,TIMEOUT,920,670,-,TIMEOUT,920,670,-
systemc/pc_sfifo_1_true-unreach-call_false-termination.cil.c,true,0.88,52,-,true,0.88,52,-
systemc/pc_sfifo_2_true-unreach-call_false-termination.cil.c,true,4.3,92,-,true,4.3,92,-
systemc/pc_sfifo_3_true-unreach-call_false-termination.cil.c,true,0.55,39,-,true,0.55,39,-
systemc/pipeline_true-unreach-call_false-termination.cil.c,true,50,220,-,true,50,220,-
systemc/token_ring.01_true-unreach-call_false-termination.cil.c,true,0.56,34,-,true,0.56,34,-
systemc/token_ring.02_true-unreach-call_false-termination.cil.c,true,1.5,48,-,true,1.5,48,-
systemc/token_ring.03_true-unreach-call_false-termination.cil.c,true,4.8,60,-,true,4.8,60,-
systemc/token_ring.04_true-unreach-call_false-termination.cil.c,true,12,73,-,true,12,73,-
systemc/token_ring.05_true-unreach-call_false-termination.cil.c,true,30,93,-,true,30,93,-
systemc/token_ring.06_true-unreach-call_false-termination.cil.c,true,59,110,-,true,59,110,-
systemc/token_ring.07_true-unreach-call_false-termination.cil.c,true,160,150,-,true,160,150,-
systemc/token_ring.08_true-unreach-call_false-termination.cil.c,true,330,180,-,true,330,180,-
systemc/token_ring.09_true-unreach-call_false-termination.cil.c,true,480,310,-,true,480,310,-
systemc/token_ring.10_true-unreach-call_false-termination.cil.c,TIMEOUT,920,1100,-,TIMEOUT,920,1100,-
systemc/token_ring.11_true-unreach-call_false-termination.cil.c,TIMEOUT,920,2600,-,TIMEOUT,920,2600,-
systemc/token_ring.12_true-unreach-call_false-termination.cil.c,TIMEOUT,920,5400,-,TIMEOUT,920,5400,-
systemc/token_ring.13_true-unreach-call_false-termination.cil.c,OUT OF MEMORY,480,15000,-,OUT OF MEMORY,480,15000,-
systemc/toy_true-unreach-call_false-termination.cil.c,true,30,110,-,true,30,110,-
seq-mthreaded/pals_STARTPALS_ActiveStandby_false-unreach-call.1.ufo.BOUNDED-10.pals.c,false(reach),0.51,40,-,witness confirmed,0.51,40,3.8
seq-mthreaded/pals_STARTPALS_ActiveStandby_false-unreach-call.1.ufo.UNBOUNDED.pals.c,false(reach),0.53,40,-,witness confirmed,0.53,40,3.2
seq-mthreaded/pals_STARTPALS_ActiveStandby_false-unreach-call.4_1.ufo.BOUNDED-10.pals.c,false(reach),1.1,42,-,witness confirmed,1.1,42,3.3
seq-mthreaded/pals_STARTPALS_ActiveStandby_false-unreach-call.4_1.ufo.UNBOUNDED.pals.c,false(reach),0.94,42,-,witness confirmed,0.94,42,3.2
seq-mthreaded/pals_STARTPALS_ActiveStandby_false-unreach-call.4_2.ufo.BOUNDED-10.pals.c,false(reach),0.88,42,-,witness confirmed,0.88,42,3.8
seq-mthreaded/pals_STARTPALS_ActiveStandby_false-unreach-call.4_2.ufo.UNBOUNDED.pals.c,false(reach),1.1,42,-,witness confirmed,1.1,42,3.2
seq-mthreaded/pals_STARTPALS_ActiveStandby_false-unreach-call.5.ufo.BOUNDED-10.pals.c,false(reach),2.6,59,-,witness confirmed,2.6,59,3.5
seq-mthreaded/pals_STARTPALS_ActiveStandby_false-unreach-call.5.ufo.UNBOUNDED.pals.c,false(reach),2.4,59,-,witness confirmed,2.4,59,3.5
seq-mthreaded/pals_STARTPALS_Triplicated_false-unreach-call.1.ufo.BOUNDED-10.pals.c,false(reach),1.8,64,-,witness confirmed,1.8,64,4.1
seq-mthreaded/pals_STARTPALS_Triplicated_false-unreach-call.1.ufo.UNBOUNDED.pals.c,false(reach),1.7,63,-,witness confirmed,1.7,63,4.2
seq-mthreaded/pals_STARTPALS_Triplicated_false-unreach-call.2.ufo.BOUNDED-10.pals.c,false(reach),2.0,67,-,witness confirmed,2.0,67,4.2
seq-mthreaded/pals_STARTPALS_Triplicated_false-unreach-call.2.ufo.UNBOUNDED.pals.c,false(reach),1.8,64,-,witness confirmed,1.8,64,4.1
seq-mthreaded/pals_floodmax.3_false-unreach-call.1.ufo.BOUNDED-6.pals.c,false(reach),3.1,66,-,witness confirmed,3.1,66,83
seq-mthreaded/pals_floodmax.3_false-unreach-call.1.ufo.UNBOUNDED.pals.c,false(reach),2.5,66,-,witness confirmed,2.5,66,79
seq-mthreaded/pals_floodmax.3_false-unreach-call.2.ufo.BOUNDED-6.pals.c,false(reach),0.95,48,-,witness confirmed,0.95,48,24
seq-mthreaded/pals_floodmax.3_false-unreach-call.2.ufo.UNBOUNDED.pals.c,false(reach),1.0,47,-,witness confirmed,1.0,47,23
seq-mthreaded/pals_floodmax.3_false-unreach-call.3.ufo.BOUNDED-6.pals.c,false(reach),2.5,71,-,witness confirmed,2.5,71,82
seq-mthreaded/pals_floodmax.3_false-unreach-call.3.ufo.UNBOUNDED.pals.c,false(reach),6.1,72,-,witness confirmed,6.1,72,79
seq-mthreaded/pals_floodmax.3_false-unreach-call.4.ufo.BOUNDED-6.pals.c,false(reach),8.3,74,-,witness confirmed,8.3,74,73
seq-mthreaded/pals_floodmax.3_false-unreach-call.4.ufo.UNBOUNDED.pals.c,false(reach),6.7,72,-,witness confirmed,6.7,72,61
seq-mthreaded/pals_floodmax.4_false-unreach-call.1.ufo.BOUNDED-8.pals.c,false(reach),43,130,-,WITNESS TIMEOUT,43,130,91
seq-mthreaded/pals_floodmax.4_false-unreach-call.1.ufo.UNBOUNDED.pals.c,false(reach),14,120,-,WITNESS TIMEOUT,14,120,91
seq-mthreaded/pals_floodmax.4_false-unreach-call.2.ufo.BOUNDED-8.pals.c,false(reach),10,100,-,WITNESS TIMEOUT,10,100,91
seq-mthreaded/pals_floodmax.4_false-unreach-call.2.ufo.UNBOUNDED.pals.c,false(reach),7.9,120,-,WITNESS TIMEOUT,7.9,120,91
seq-mthreaded/pals_floodmax.4_false-unreach-call.3.ufo.BOUNDED-8.pals.c,false(reach),60,140,-,WITNESS TIMEOUT,60,140,91
seq-mthreaded/pals_floodmax.4_false-unreach-call.3.ufo.UNBOUNDED.pals.c,false(reach),72,140,-,WITNESS TIMEOUT,72,140,91
seq-mthreaded/pals_floodmax.4_false-unreach-call.4.ufo.BOUNDED-8.pals.c,false(reach),370,150,-,WITNESS TIMEOUT,370,150,91
seq-mthreaded/pals_floodmax.4_false-unreach-call.4.ufo.UNBOUNDED.pals.c,false(reach),170,160,-,WITNESS TIMEOUT,170,160,91
seq-mthreaded/pals_floodmax.5_false-unreach-call.1.ufo.BOUNDED-10.pals.c,TIMEOUT,920,200,-,TIMEOUT,920,200,-
seq-mthreaded/pals_floodmax.5_false-unreach-call.1.ufo.UNBOUNDED.pals.c,TIMEOUT,920,200,-,TIMEOUT,920,200,-
seq-mthreaded/pals_floodmax.5_false-unreach-call.2.ufo.BOUNDED-10.pals.c,false(reach),210,260,-,WITNESS TIMEOUT,210,260,92
seq-mthreaded/pals_floodmax.5_false-unreach-call.2.ufo.UNBOUNDED.pals.c,false(reach),51,150,-,WITNESS TIMEOUT,51,150,92
seq-mthreaded/pals_floodmax.5_false-unreach-call.3.ufo.BOUNDED-10.pals.c,TIMEOUT,920,210,-,TIMEOUT,920,210,-
seq-mthreaded/pals_floodmax.5_false-unreach-call.3.ufo.UNBOUNDED.pals.c,TIMEOUT,920,200,-,TIMEOUT,920,200,-
seq-mthreaded/pals_floodmax.5_false-unreach-call.4.ufo.BOUNDED-10.pals.c,TIMEOUT,920,210,-,TIMEOUT,920,210,-
seq-mthreaded/pals_floodmax.5_false-unreach-call.4.ufo.UNBOUNDED.pals.c,TIMEOUT,920,200,-,TIMEOUT,920,200,-
seq-mthreaded/pals_lcr-var-start-time.3_false-unreach-call.1.ufo.BOUNDED-6.pals.c,false(reach),5.1,58,-,witness confirmed,5.1,58,3.4
seq-mthreaded/pals_lcr-var-start-time.3_false-unreach-call.1.ufo.UNBOUNDED.pals.c,false(reach),3.2,56,-,witness confirmed,3.2,56,3.4
seq-mthreaded/pals_lcr-var-start-time.3_false-unreach-call.2.ufo.BOUNDED-6.pals.c,false(reach),3.4,56,-,witness confirmed,3.4,56,3.3
seq-mthreaded/pals_lcr-var-start-time.3_false-unreach-call.2.ufo.UNBOUNDED.pals.c,false(reach),5.3,57,-,witness confirmed,5.3,57,3.3
seq-mthreaded/pals_lcr-var-start-time.4_false-unreach-call.1.ufo.BOUNDED-8.pals.c,false(reach),39,89,-,witness confirmed,39,89,4.9
seq-mthreaded/pals_lcr-var-start-time.4_false-unreach-call.1.ufo.UNBOUNDED.pals.c,false(reach),60,91,-,witness confirmed,60,91,4.9
seq-mthreaded/pals_lcr-var-start-time.4_false-unreach-call.2.ufo.BOUNDED-8.pals.c,false(reach),81,99,-,witness confirmed,81,99,5.3
seq-mthreaded/pals_lcr-var-start-time.4_false-unreach-call.2.ufo.UNBOUNDED.pals.c,false(reach),31,88,-,witness confirmed,31,88,4.8
seq-mthreaded/pals_lcr-var-start-time.5_false-unreach-call.1.ufo.BOUNDED-10.pals.c,TIMEOUT,920,120,-,TIMEOUT,920,120,-
seq-mthreaded/pals_lcr-var-start-time.5_false-unreach-call.1.ufo.UNBOUNDED.pals.c,false(reach),620,130,-,witness confirmed,620,130,9.3
seq-mthreaded/pals_lcr-var-start-time.5_false-unreach-call.2.ufo.BOUNDED-10.pals.c,false(reach),560,130,-,witness confirmed,560,130,9.5
seq-mthreaded/pals_lcr-var-start-time.5_false-unreach-call.2.ufo.UNBOUNDED.pals.c,false(reach),860,150,-,witness confirmed,860,150,9.2
seq-mthreaded/pals_lcr-var-start-time.6_false-unreach-call.1.ufo.BOUNDED-12.pals.c,TIMEOUT,920,130,-,TIMEOUT,920,130,-
seq-mthreaded/pals_lcr-var-start-time.6_false-unreach-call.1.ufo.UNBOUNDED.pals.c,TIMEOUT,920,130,-,TIMEOUT,920,130,-
seq-mthreaded/pals_lcr-var-start-time.6_false-unreach-call.2.ufo.BOUNDED-12.pals.c,TIMEOUT,920,120,-,TIMEOUT,920,120,-
seq-mthreaded/pals_lcr-var-start-time.6_false-unreach-call.2.ufo.UNBOUNDED.pals.c,TIMEOUT,920,130,-,TIMEOUT,920,130,-
seq-mthreaded/pals_lcr.3_false-unreach-call.1.ufo.BOUNDED-6.pals.c,false(reach),3.5,56,-,witness confirmed,3.5,56,2.8
seq-mthreaded/pals_lcr.3_false-unreach-call.1.ufo.UNBOUNDED.pals.c,false(reach),2.7,56,-,witness confirmed,2.7,56,3.3
seq-mthreaded/pals_lcr.4_false-unreach-call.1.ufo.BOUNDED-8.pals.c,false(reach),15,71,-,witness confirmed,15,71,3.5
seq-mthreaded/pals_lcr.4_false-unreach-call.1.ufo.UNBOUNDED.pals.c,false(reach),15,75,-,witness confirmed,15,75,3.5
seq-mthreaded/pals_lcr.5_false-unreach-call.1.ufo.BOUNDED-10.pals.c,false(reach),120,120,-,witness confirmed,120,120,5.3
seq-mthreaded/pals_lcr.5_false-unreach-call.1.ufo.UNBOUNDED.pals.c,false(reach),93,130,-,witness confirmed,93,130,5.4
seq-mthreaded/pals_lcr.6_false-unreach-call.1.ufo.BOUNDED-12.pals.c,TIMEOUT,920,190,-,TIMEOUT,920,190,-
seq-mthreaded/pals_lcr.6_false-unreach-call.1.ufo.UNBOUNDED.pals.c,TIMEOUT,920,170,-,TIMEOUT,920,170,-
seq-mthreaded/pals_lcr.7_false-unreach-call.1.ufo.BOUNDED-14.pals.c,TIMEOUT,920,140,-,TIMEOUT,920,140,-
seq-mthreaded/pals_lcr.7_false-unreach-call.1.ufo.UNBOUNDED.pals.c,TIMEOUT,920,140,-,TIMEOUT,920,140,-
seq-mthreaded/pals_lcr.8_false-unreach-call.1.ufo.BOUNDED-16.pals.c,TIMEOUT,920,140,-,TIMEOUT,920,140,-
seq-mthreaded/pals_lcr.8_false-unreach-call.1.ufo.UNBOUNDED.pals.c,TIMEOUT,920,140,-,TIMEOUT,920,140,-
seq-mthreaded/pals_opt-floodmax.3_false-unreach-call.1.ufo.BOUNDED-6.pals.c,false(reach),4.0,73,-,WITNESS TIMEOUT,4.0,73,92
seq-mthreaded/pals_opt-floodmax.3_false-unreach-call.1.ufo.UNBOUNDED.pals.c,false(reach),4.5,72,-,WITNESS TIMEOUT,4.5,72,92
seq-mthreaded/pals_opt-floodmax.3_false-unreach-call.2.ufo.BOUNDED-6.pals.c,false(reach),1.2,51,-,WITNESS TIMEOUT,1.2,51,95
seq-mthreaded/pals_opt-floodmax.3_false-unreach-call.2.ufo.UNBOUNDED.pals.c,false(reach),1.1,50,-,WITNESS TIMEOUT,1.1,50,93
seq-mthreaded/pals_opt-floodmax.3_false-unreach-call.3.ufo.BOUNDED-6.pals.c,false(reach),2.9,73,-,WITNESS TIMEOUT,2.9,73,92
seq-mthreaded/pals_opt-floodmax.3_false-unreach-call.3.ufo.UNBOUNDED.pals.c,false(reach),4.9,74,-,WITNESS TIMEOUT,4.9,74,92
seq-mthreaded/pals_opt-floodmax.3_false-unreach-call.4.ufo.BOUNDED-6.pals.c,false(reach),11,78,-,WITNESS TIMEOUT,11,78,93
seq-mthreaded/pals_opt-floodmax.3_false-unreach-call.4.ufo.UNBOUNDED.pals.c,false(reach),11,77,-,WITNESS TIMEOUT,11,77,93
seq-mthreaded/pals_opt-floodmax.4_false-unreach-call.1.ufo.BOUNDED-8.pals.c,false(reach),29,130,-,WITNESS TIMEOUT,29,130,91
seq-mthreaded/pals_opt-floodmax.4_false-unreach-call.1.ufo.UNBOUNDED.pals.c,false(reach),99,150,-,WITNESS TIMEOUT,99,150,91
seq-mthreaded/pals_opt-floodmax.4_false-unreach-call.2.ufo.BOUNDED-8.pals.c,false(reach),25,130,-,WITNESS TIMEOUT,25,130,91
seq-mthreaded/pals_opt-floodmax.4_false-unreach-call.2.ufo.UNBOUNDED.pals.c,false(reach),16,130,-,WITNESS TIMEOUT,16,130,91
seq-mthreaded/pals_opt-floodmax.4_false-unreach-call.3.ufo.BOUNDED-8.pals.c,false(reach),140,160,-,WITNESS TIMEOUT,140,160,91
seq-mthreaded/pals_opt-floodmax.4_false-unreach-call.3.ufo.UNBOUNDED.pals.c,false(reach),27,140,-,WITNESS TIMEOUT,27,140,91
seq-mthreaded/pals_opt-floodmax.4_false-unreach-call.4.ufo.BOUNDED-8.pals.c,false(reach),490,150,-,WITNESS TIMEOUT,490,150,91
seq-mthreaded/pals_opt-floodmax.4_false-unreach-call.4.ufo.UNBOUNDED.pals.c,false(reach),250,160,-,WITNESS TIMEOUT,250,160,91
seq-mthreaded/pals_opt-floodmax.5_false-unreach-call.1.ufo.BOUNDED-10.pals.c,TIMEOUT,920,210,-,TIMEOUT,920,210,-
seq-mthreaded/pals_opt-floodmax.5_false-unreach-call.1.ufo.UNBOUNDED.pals.c,TIMEOUT,920,210,-,TIMEOUT,920,210,-
seq-mthreaded/pals_opt-floodmax.5_false-unreach-call.2.ufo.BOUNDED-10.pals.c,false(reach),390,210,-,WITNESS TIMEOUT,390,210,92
seq-mthreaded/pals_opt-floodmax.5_false-unreach-call.2.ufo.UNBOUNDED.pals.c,false(reach),560,210,-,WITNESS TIMEOUT,560,210,92
seq-mthreaded/pals_opt-floodmax.5_false-unreach-call.3.ufo.BOUNDED-10.pals.c,TIMEOUT,920,220,-,TIMEOUT,920,220,-
seq-mthreaded/pals_opt-floodmax.5_false-unreach-call.3.ufo.UNBOUNDED.pals.c,TIMEOUT,920,210,-,TIMEOUT,920,210,-
seq-mthreaded/pals_opt-floodmax.5_false-unreach-call.4.ufo.BOUNDED-10.pals.c,TIMEOUT,920,210,-,TIMEOUT,920,210,-
seq-mthreaded/pals_opt-floodmax.5_false-unreach-call.4.ufo.UNBOUNDED.pals.c,TIMEOUT,920,210,-,TIMEOUT,920,210,-
seq-mthreaded/rekcba_aso_false-unreach-call.1.M1.c,false(reach),660,630,-,witness invalid (ERROR (invalid C code)),660,630,2.2
seq-mthreaded/rekcba_aso_false-unreach-call.1.M4.c,TIMEOUT,920,2100,-,TIMEOUT,920,2100,-
seq-mthreaded/rekcba_aso_false-unreach-call.2.M1.c,false(reach),770,620,-,witness invalid (ERROR (invalid C code)),770,620,2.3
seq-mthreaded/rekcba_aso_false-unreach-call.2.M4.c,TIMEOUT,920,2000,-,TIMEOUT,920,2000,-
seq-mthreaded/rekcba_aso_false-unreach-call.3.M1.c,TIMEOUT,920,620,-,TIMEOUT,920,620,-
seq-mthreaded/rekcba_aso_false-unreach-call.3.M4.c,TIMEOUT,920,2200,-,TIMEOUT,920,2200,-
seq-mthreaded/rekcba_aso_false-unreach-call.4.M1.c,TIMEOUT,920,640,-,TIMEOUT,920,640,-
seq-mthreaded/rekcba_aso_false-unreach-call.4.M4.c,TIMEOUT,920,2500,-,TIMEOUT,920,2500,-
seq-mthreaded/rekcba_ctm_false-unreach-call.2.c,TIMEOUT,920,1200,-,TIMEOUT,920,1200,-
seq-mthreaded/rekcba_ctm_false-unreach-call.3.c,TIMEOUT,920,8900,-,TIMEOUT,920,8900,-
seq-mthreaded/rekcba_nxt_false-unreach-call.1.M1.c,false(reach),340,450,-,witness invalid (ERROR (invalid C code)),340,450,2.1
seq-mthreaded/rekcba_nxt_false-unreach-call.1.M4.c,TIMEOUT,920,1300,-,TIMEOUT,920,1300,-
seq-mthreaded/rekcba_nxt_false-unreach-call.2.M1.c,false(reach),620,590,-,witness invalid (ERROR (invalid C code)),620,590,2.3
seq-mthreaded/rekcba_nxt_false-unreach-call.2.M4.c,TIMEOUT,920,2200,-,TIMEOUT,920,2200,-
seq-mthreaded/rekh_aso_false-unreach-call.1.M1.c,false(reach),190,550,-,witness invalid (ERROR (invalid C code)),190,550,2.6
seq-mthreaded/rekh_aso_false-unreach-call.1.M4.c,false(reach),680,910,-,witness invalid (ERROR (invalid C code)),680,910,2.9
seq-mthreaded/rekh_aso_false-unreach-call.2.M1.c,false(reach),180,580,-,witness invalid (ERROR (invalid C code)),180,580,2.6
seq-mthreaded/rekh_aso_false-unreach-call.2.M4.c,false(reach),680,900,-,witness invalid (ERROR (invalid C code)),680,900,2.6
seq-mthreaded/rekh_aso_false-unreach-call.4.M1.c,false(reach),270,710,-,witness invalid (ERROR (invalid C code)),270,710,2.9
seq-mthreaded/rekh_aso_false-unreach-call.4.M4.c,TIMEOUT,920,850,-,TIMEOUT,920,850,-
seq-mthreaded/rekh_ctm_false-unreach-call.2.c,false(reach),250,940,-,witness invalid (ERROR (invalid C code)),250,940,2.8
seq-mthreaded/rekh_ctm_false-unreach-call.3.c,false(reach),410,990,-,witness invalid (ERROR (invalid C code)),410,990,2.8
seq-mthreaded/rekh_nxt_false-unreach-call.1.M1.c,false(reach),330,440,-,witness invalid (ERROR (invalid C code)),330,440,2.2
seq-mthreaded/rekh_nxt_false-unreach-call.1.M4.c,TIMEOUT,920,520,-,TIMEOUT,920,520,-
seq-mthreaded/rekh_nxt_false-unreach-call.2.M1.c,false(reach),140,480,-,witness invalid (ERROR (invalid C code)),140,480,2.3
seq-mthreaded/rekh_nxt_false-unreach-call.2.M4.c,false(reach),610,770,-,witness invalid (ERROR (invalid C code)),610,770,2.3
seq-mthreaded/pals_STARTPALS_ActiveStandby_true-unreach-call.ufo.BOUNDED-10.pals.c,true,2.4,51,-,true,2.4,51,-
seq-mthreaded/pals_STARTPALS_ActiveStandby_true-unreach-call.ufo.UNBOUNDED.pals.c,true,2.2,50,-,true,2.2,50,-
seq-mthreaded/pals_STARTPALS_Triplicated_true-unreach-call.ufo.BOUNDED-10.pals.c,true,0.73,39,-,true,0.73,39,-
seq-mthreaded/pals_STARTPALS_Triplicated_true-unreach-call.ufo.UNBOUNDED.pals.c,true,0.70,38,-,true,0.70,38,-
seq-mthreaded/pals_floodmax.3_true-unreach-call.ufo.BOUNDED-6.pals.c,true,33,90,-,true,33,90,-
seq-mthreaded/pals_floodmax.3_true-unreach-call.ufo.UNBOUNDED.pals.c,true,55,110,-,true,55,110,-
seq-mthreaded/pals_floodmax.4_true-unreach-call.ufo.BOUNDED-8.pals.c,TIMEOUT,920,150,-,TIMEOUT,920,150,-
seq-mthreaded/pals_floodmax.4_true-unreach-call.ufo.UNBOUNDED.pals.c,TIMEOUT,920,160,-,TIMEOUT,920,160,-
seq-mthreaded/pals_floodmax.5_true-unreach-call.ufo.BOUNDED-10.pals.c,TIMEOUT,920,210,-,TIMEOUT,920,210,-
seq-mthreaded/pals_floodmax.5_true-unreach-call.ufo.UNBOUNDED.pals.c,TIMEOUT,920,210,-,TIMEOUT,920,210,-
seq-mthreaded/pals_lcr-var-start-time.3_true-unreach-call.ufo.BOUNDED-6.pals.c,true,120,140,-,true,120,140,-
seq-mthreaded/pals_lcr-var-start-time.3_true-unreach-call.ufo.UNBOUNDED.pals.c,true,770,300,-,true,770,300,-
seq-mthreaded/pals_lcr-var-start-time.4_true-unreach-call.ufo.BOUNDED-8.pals.c,TIMEOUT,920,170,-,TIMEOUT,920,170,-
seq-mthreaded/pals_lcr-var-start-time.4_true-unreach-call.ufo.UNBOUNDED.pals.c,TIMEOUT,920,180,-,TIMEOUT,920,180,-
seq-mthreaded/pals_lcr-var-start-time.5_true-unreach-call.ufo.BOUNDED-10.pals.c,TIMEOUT,920,140,-,TIMEOUT,920,140,-
seq-mthreaded/pals_lcr-var-start-time.5_true-unreach-call.ufo.UNBOUNDED.pals.c,TIMEOUT,920,120,-,TIMEOUT,920,120,-
seq-mthreaded/pals_lcr-var-start-time.6_true-unreach-call.ufo.BOUNDED-12.pals.c,TIMEOUT,920,120,-,TIMEOUT,920,120,-
seq-mthreaded/pals_lcr-var-start-time.6_true-unreach-call.ufo.UNBOUNDED.pals.c,TIMEOUT,920,130,-,TIMEOUT,920,130,-
seq-mthreaded/pals_lcr.3_true-unreach-call.ufo.BOUNDED-6.pals.c,true,11,65,-,true,11,65,-
seq-mthreaded/pals_lcr.3_true-unreach-call.ufo.UNBOUNDED.pals.c,true,17,83,-,true,17,83,-
seq-mthreaded/pals_lcr.4_true-unreach-call.ufo.BOUNDED-8.pals.c,true,100,160,-,true,100,160,-
seq-mthreaded/pals_lcr.4_true-unreach-call.ufo.UNBOUNDED.pals.c,true,170,190,-,true,170,190,-
seq-mthreaded/pals_lcr.5_true-unreach-call.ufo.BOUNDED-10.pals.c,TIMEOUT,920,210,-,TIMEOUT,920,210,-
seq-mthreaded/pals_lcr.5_true-unreach-call.ufo.UNBOUNDED.pals.c,TIMEOUT,920,220,-,TIMEOUT,920,220,-
seq-mthreaded/pals_lcr.6_true-unreach-call.ufo.BOUNDED-12.pals.c,TIMEOUT,920,170,-,TIMEOUT,920,170,-
seq-mthreaded/pals_lcr.6_true-unreach-call.ufo.UNBOUNDED.pals.c,TIMEOUT,920,180,-,TIMEOUT,920,180,-
seq-mthreaded/pals_lcr.7_true-unreach-call.ufo.BOUNDED-14.pals.c,TIMEOUT,920,150,-,TIMEOUT,920,150,-
seq-mthreaded/pals_lcr.7_true-unreach-call.ufo.UNBOUNDED.pals.c,TIMEOUT,920,150,-,TIMEOUT,920,150,-
seq-mthreaded/pals_lcr.8_true-unreach-call.ufo.BOUNDED-16.pals.c,TIMEOUT,920,140,-,TIMEOUT,920,140,-
seq-mthreaded/pals_lcr.8_true-unreach-call.ufo.UNBOUNDED.pals.c,TIMEOUT,920,130,-,TIMEOUT,920,130,-
seq-mthreaded/pals_opt-floodmax.3_true-unreach-call.ufo.BOUNDED-6.pals.c,true,120,130,-,true,120,130,-
seq-mthreaded/pals_opt-floodmax.3_true-unreach-call.ufo.UNBOUNDED.pals.c,true,82,110,-,true,82,110,-
seq-mthreaded/pals_opt-floodmax.4_true-unreach-call.ufo.BOUNDED-8.pals.c,TIMEOUT,920,150,-,TIMEOUT,920,150,-
seq-mthreaded/pals_opt-floodmax.4_true-unreach-call.ufo.UNBOUNDED.pals.c,TIMEOUT,920,140,-,TIMEOUT,920,140,-
seq-mthreaded/pals_opt-floodmax.5_true-unreach-call.ufo.BOUNDED-10.pals.c,TIMEOUT,920,220,-,TIMEOUT,920,220,-
seq-mthreaded/pals_opt-floodmax.5_true-unreach-call.ufo.UNBOUNDED.pals.c,TIMEOUT,920,220,-,TIMEOUT,920,220,-
seq-mthreaded/rekcba_aso_true-unreach-call.1.M1.c,false(reach),580,610,-,false(reach),580,610,-
seq-mthreaded/rekcba_aso_true-unreach-call.1.M4.c,TIMEOUT,920,2100,-,TIMEOUT,920,2100,-
seq-mthreaded/rekcba_aso_true-unreach-call.2.M1.c,TIMEOUT,920,560,-,TIMEOUT,920,560,-
seq-mthreaded/rekcba_aso_true-unreach-call.2.M4.c,TIMEOUT,920,2400,-,TIMEOUT,920,2400,-
seq-mthreaded/rekcba_ctm_true-unreach-call.1.c,TIMEOUT,920,3400,-,TIMEOUT,920,3400,-
seq-mthreaded/rekcba_ctm_true-unreach-call.2.c,TIMEOUT,920,1200,-,TIMEOUT,920,1200,-
seq-mthreaded/rekcba_ctm_true-unreach-call.3.c,TIMEOUT,920,9000,-,TIMEOUT,920,9000,-
seq-mthreaded/rekcba_ctm_true-unreach-call.4.c,OUT OF MEMORY,470,15000,-,OUT OF MEMORY,470,15000,-
seq-mthreaded/rekcba_nxt_true-unreach-call.1.M1.c,false(reach),380,470,-,false(reach),380,470,-
seq-mthreaded/rekcba_nxt_true-unreach-call.1.M4.c,TIMEOUT,920,1200,-,TIMEOUT,920,1200,-
seq-mthreaded/rekcba_nxt_true-unreach-call.2.M1.c,false(reach),450,490,-,false(reach),450,490,-
seq-mthreaded/rekcba_nxt_true-unreach-call.2.M4.c,TIMEOUT,920,1500,-,TIMEOUT,920,1500,-
seq-mthreaded/rekcba_nxt_true-unreach-call.3.M1.c,false(reach),580,610,-,false(reach),580,610,-
seq-mthreaded/rekcba_nxt_true-unreach-call.3.M4.c,TIMEOUT,920,2300,-,TIMEOUT,920,2300,-
seq-mthreaded/rekh_aso_true-unreach-call.1.M1.c,false(reach),190,550,-,false(reach),190,550,-
seq-mthreaded/rekh_aso_true-unreach-call.1.M4.c,false(reach),600,820,-,false(reach),600,820,-
seq-mthreaded/rekh_aso_true-unreach-call.2.M1.c,false(reach),260,730,-,false(reach),260,730,-
seq-mthreaded/rekh_aso_true-unreach-call.2.M4.c,TIMEOUT,920,840,-,TIMEOUT,920,840,-
seq-mthreaded/rekh_aso_true-unreach-call.3.M1.c,false(reach),280,780,-,false(reach),280,780,-
seq-mthreaded/rekh_aso_true-unreach-call.3.M4.c,TIMEOUT,920,950,-,TIMEOUT,920,950,-
seq-mthreaded/rekh_ctm_true-unreach-call.1.c,false(reach),230,950,-,false(reach),230,950,-
seq-mthreaded/rekh_ctm_true-unreach-call.2.c,false(reach),270,950,-,false(reach),270,950,-
seq-mthreaded/rekh_ctm_true-unreach-call.3.c,false(reach),430,1000,-,false(reach),430,1000,-
seq-mthreaded/rekh_ctm_true-unreach-call.4.c,false(reach),800,1500,-,false(reach),800,1500,-
seq-mthreaded/rekh_nxt_true-unreach-call.1.M1.c,false(reach),350,430,-,false(reach),350,430,-
seq-mthreaded/rekh_nxt_true-unreach-call.1.M4.c,TIMEOUT,920,500,-,TIMEOUT,920,500,-
seq-mthreaded/rekh_nxt_true-unreach-call.2.M1.c,false(reach),86,390,-,false(reach),86,390,-
seq-mthreaded/rekh_nxt_true-unreach-call.2.M4.c,false(reach),530,750,-,false(reach),530,750,-
seq-mthreaded/rekh_nxt_true-unreach-call.3.M1.c,false(reach),140,460,-,false(reach),140,460,-
seq-mthreaded/rekh_nxt_true-unreach-call.3.M4.c,false(reach),630,730,-,false(reach),630,730,-
seq-pthread/cs_fib_false-unreach-call.i,true,0.21,22,-,true,0.21,22,-
seq-pthread/cs_fib_longer_false-unreach-call.i,true,0.20,28,-,true,0.20,28,-
seq-pthread/cs_lazy_false-unreach-call.i,true,0.17,27,-,true,0.17,27,-
seq-pthread/cs_queue_false-unreach-call.i,true,0.23,28,-,true,0.23,28,-
seq-pthread/cs_read_write_lock_false-unreach-call.i,true,0.20,23,-,true,0.20,23,-
seq-pthread/cs_stack_false-unreach-call.i,true,0.18,27,-,true,0.18,27,-
seq-pthread/cs_stateful_false-unreach-call.i,true,0.17,27,-,true,0.17,27,-
seq-pthread/cs_dekker_true-unreach-call.i,true,0.19,27,-,true,0.19,27,-
seq-pthread/cs_fib_longer_true-unreach-call.i,true,0.24,28,-,true,0.24,28,-
seq-pthread/cs_fib_true-unreach-call.i,true,0.23,27,-,true,0.23,27,-
seq-pthread/cs_lamport_true-unreach-call.i,true,0.18,27,-,true,0.18,27,-
seq-pthread/cs_peterson_true-unreach-call.i,true,0.17,27,-,true,0.17,27,-
seq-pthread/cs_queue_true-unreach-call.i,true,0.23,27,-,true,0.23,27,-
seq-pthread/cs_read_write_lock_true-unreach-call.i,true,0.18,27,-,true,0.18,27,-
seq-pthread/cs_stack_true-unreach-call.i,true,0.17,27,-,true,0.17,27,-
seq-pthread/cs_stateful_true-unreach-call.i,true,0.18,27,-,true,0.18,27,-
seq-pthread/cs_sync_true-unreach-call.i,true,0.17,27,-,true,0.17,27,-
seq-pthread/cs_szymanski_true-unreach-call.i,true,0.18,27,-,true,0.18,27,-
seq-pthread/cs_time_var_mutex_true-unreach-call.i,true,0.31,27,-,true,0.31,27,-
